{
    "_id": "5dff6e1014569703166749d5",
    "tags": [
        "avionic"
    ],
    "icon": "icons/en/bulkhead_(zetki).ff5f23593d0850514dd7b63c3a16d8c9.png",
    "thumb": "icons/en/thumbs/bulkhead_(zetki).ff5f23593d0850514dd7b63c3a16d8c9.128x128.png",
    "icon_format": "port",
    "url_name": "bulkhead_(zetki)",
    "tradable": true,
    "en": {
        "item_name": "Bulkhead (Zetki)",
        "description": "A Integrated Avionics that increases Railjack Hull (health)",
        "wiki_link": "https://warframe.fandom.com/wiki/Avionics#Bulkhead",
        "drop": [
            {
                "name": "Kosma Flak",
                "link": null
            },
            {
                "name": "Kosma Cutter",
                "link": null
            },
            {
                "name": "Exo Cutter",
                "link": null
            },
            {
                "name": "Kosma Outrider",
                "link": null
            },
            {
                "name": "Elite Kosma Taktis",
                "link": null
            }
        ]
    },
    "ru": {
        "item_name": "Bulkhead (Zetki)",
        "description": "A Integrated Avionics that increases Railjack Hull (health)",
        "wiki_link": "https://warframe.fandom.com/wiki/Avionics#Bulkhead",
        "drop": [
            {
                "name": "Kosma Flak",
                "link": null
            },
            {
                "name": "Kosma Cutter",
                "link": null
            },
            {
                "name": "Exo Cutter",
                "link": null
            },
            {
                "name": "Kosma Outrider",
                "link": null
            },
            {
                "name": "Elite Kosma Taktis",
                "link": null
            }
        ]
    },
    "ko": {
        "item_name": "Bulkhead (Zetki)",
        "description": "A Integrated Avionics that increases Railjack Hull (health)",
        "wiki_link": "https://warframe.fandom.com/wiki/Avionics#Bulkhead",
        "drop": [
            {
                "name": "Kosma Flak",
                "link": null
            },
            {
                "name": "Kosma Cutter",
                "link": null
            },
            {
                "name": "Exo Cutter",
                "link": null
            },
            {
                "name": "Kosma Outrider",
                "link": null
            },
            {
                "name": "Elite Kosma Taktis",
                "link": null
            }
        ]
    },
    "mod_max_rank": 7
}