{
    "_id": "5dff6e111456970316674a14",
    "tags": [
        "avionic"
    ],
    "icon": "icons/en/hull_weave_(vidar).ff5f23593d0850514dd7b63c3a16d8c9.png",
    "thumb": "icons/en/thumbs/hull_weave_(vidar).ff5f23593d0850514dd7b63c3a16d8c9.128x128.png",
    "icon_format": "port",
    "url_name": "hull_weave_(vidar)",
    "tradable": true,
    "en": {
        "item_name": "Hull Weave (Vidar)",
        "description": "A Integrated Avionics that increases Railjack armor",
        "wiki_link": "https://warframe.fandom.com/wiki/Avionics#Hull_Weave",
        "drop": [
            {
                "name": "Cannon Battery",
                "link": null
            },
            {
                "name": "Kosma Taktis",
                "link": null
            },
            {
                "name": "Elite Exo Flak",
                "link": null
            },
            {
                "name": "Elite Exo Cutter",
                "link": null
            },
            {
                "name": "Gyre Taktis",
                "link": null
            },
            {
                "name": "Gyre Outrider",
                "link": null
            }
        ]
    },
    "ru": {
        "item_name": "Hull Weave (Vidar)",
        "description": "A Integrated Avionics that increases Railjack armor",
        "wiki_link": "https://warframe.fandom.com/wiki/Avionics#Hull_Weave",
        "drop": [
            {
                "name": "Cannon Battery",
                "link": null
            },
            {
                "name": "Kosma Taktis",
                "link": null
            },
            {
                "name": "Elite Exo Flak",
                "link": null
            },
            {
                "name": "Elite Exo Cutter",
                "link": null
            },
            {
                "name": "Gyre Taktis",
                "link": null
            },
            {
                "name": "Gyre Outrider",
                "link": null
            }
        ]
    },
    "ko": {
        "item_name": "Hull Weave (Vidar)",
        "description": "A Integrated Avionics that increases Railjack armor",
        "wiki_link": "https://warframe.fandom.com/wiki/Avionics#Hull_Weave",
        "drop": [
            {
                "name": "Cannon Battery",
                "link": null
            },
            {
                "name": "Kosma Taktis",
                "link": null
            },
            {
                "name": "Elite Exo Flak",
                "link": null
            },
            {
                "name": "Elite Exo Cutter",
                "link": null
            },
            {
                "name": "Gyre Taktis",
                "link": null
            },
            {
                "name": "Gyre Outrider",
                "link": null
            }
        ]
    },
    "mod_max_rank": 4
}