{
    "_id": "5dff6e1014569703166749f6",
    "tags": [
        "avionic"
    ],
    "icon": "icons/en/tether.ff5f23593d0850514dd7b63c3a16d8c9.png",
    "thumb": "icons/en/thumbs/tether.ff5f23593d0850514dd7b63c3a16d8c9.128x128.png",
    "icon_format": "port",
    "url_name": "tether",
    "tradable": true,
    "en": {
        "item_name": "Tether",
        "description": "A Battle Avionics that emits a field that restricts the movement of enemy targets for a certain time and then detonates, dealing damage to all enemies within an increased range",
        "wiki_link": "https://warframe.fandom.com/wiki/Avionics#Tether",
        "drop": [
            {
                "name": "Cannon Battery",
                "link": null
            },
            {
                "name": "Kosma Taktis",
                "link": null
            },
            {
                "name": "Gyre Flak",
                "link": null
            }
        ]
    },
    "ru": {
        "item_name": "Tether",
        "description": "A Battle Avionics that emits a field that restricts the movement of enemy targets for a certain time and then detonates, dealing damage to all enemies within an increased range",
        "wiki_link": "https://warframe.fandom.com/wiki/Avionics#Tether",
        "drop": [
            {
                "name": "Cannon Battery",
                "link": null
            },
            {
                "name": "Kosma Taktis",
                "link": null
            },
            {
                "name": "Gyre Flak",
                "link": null
            }
        ]
    },
    "ko": {
        "item_name": "Tether",
        "description": "A Battle Avionics that emits a field that restricts the movement of enemy targets for a certain time and then detonates, dealing damage to all enemies within an increased range",
        "wiki_link": "https://warframe.fandom.com/wiki/Avionics#Tether",
        "drop": [
            {
                "name": "Cannon Battery",
                "link": null
            },
            {
                "name": "Kosma Taktis",
                "link": null
            },
            {
                "name": "Gyre Flak",
                "link": null
            }
        ]
    },
    "mod_max_rank": 4
}