{
    "_id": "5e6a4e62735914e20933ec38",
    "url_name": "none",
    "en": {
        "item_name": "None",
        "description": "Doesn't have any quirks"
    },
    "ru": {
        "item_name": "None",
        "description": "Doesn't have any quirks"
    },
    "ko": {
        "item_name": "None",
        "description": "Doesn't have any quirks"
    }
}