{
    "_id": "5e6248fc7d76f2c26d1b7c5e",
    "url_name": "trophy_hunter",
    "en": {
        "item_name": "Trophy Hunter",
        "description": "Reward tax is higher than usual, allowing the Lich to steal more rewards"
    },
    "ru": {
        "item_name": "Trophy Hunter",
        "description": "Reward tax is higher than usual, allowing the Lich to steal more rewards"
    },
    "ko": {
        "item_name": "Trophy Hunter",
        "description": "Reward tax is higher than usual, allowing the Lich to steal more rewards"
    }
}