{
    "_id": "5e6a4e62735914e20933ec37",
    "url_name": "undefined",
    "en": {
        "item_name": "Undefined",
        "description": "Owner has not indicated if there are any quirks"
    },
    "ru": {
        "item_name": "Undefined",
        "description": "Owner has not indicated if there are any quirks"
    },
    "ko": {
        "item_name": "Undefined",
        "description": "Owner has not indicated if there are any quirks"
    }
}