{
    "_id": "5e6243167d76f28630fbdf2a",
    "url_name": "kuva_drakgoon",
    "icon": "icons/en/kuva_drakgoon.18ccf386cfd24a1404982d492abf14e2.png",
    "thumb": "icons/en/thumbs/kuva_drakgoon.18ccf386cfd24a1404982d492abf14e2.128x128.png",
    "icon_format": "land",
    "en": {
        "item_name": "Kuva Drakgoon",
        "wiki_link": "https://warframe.fandom.com/wiki/Kuva_Drakgoon"
    },
    "ru": {
        "item_name": "Дракгун Кува",
        "wiki_link": "https://warframe.fandom.com/wiki/Kuva_Drakgoon"
    },
    "ko": {
        "item_name": "Kuva Drakgoon",
        "wiki_link": "https://warframe.fandom.com/wiki/Kuva_Drakgoon"
    }
}